{
    "handlers": [
        {
            "class": "\\MCMic\\Gemini\\TicTacToe\\RequestHandler",
            "domain": "tictactoe.lanterne.chilliet.eu",
            "cert": "tictactoe.pem"
        },
        {
            "class": "\\MCMic\\Gemini\\Chess\\PuzzleHandler",
            "domain": "chess.lanterne.chilliet.eu",
            "cert": "chess.pem"
        },
        {
            "class": "\\MCMic\\Gemini\\Files\\RequestHandler",
            "domain": "code",
            "cert": "code.pem",
            "parameters": [
                ".",
                [
                    "LICENSE","gemini-games.php","src","src/*.php","src/*/*.php",
                    "vendor/mcmic/gemini-server/*",
                    "vendor/mcmic/gemini-server/src/*.php",
                    "vendor/mcmic/gemini-server/src/*/*.php",
                ]
            ]
        },
        {
            "class": "\\MCMic\\Gemini\\Files\\RequestHandler",
            "domain": "games",
            "cert": "games.pem",
            "parameters": [
                "games",
                [
                    "*.gmi"
                ]
            ]
        }
    ]
}
